<?xml version="1.0" encoding="UTF-8" standalone="no"?>
<svg width="20px" height="20px" viewBox="0 0 20 20" version="1.1" xmlns="http://www.w3.org/2000/svg" xmlns:xlink="http://www.w3.org/1999/xlink">
    <!-- Generator: Sketch 41.2 (35397) - http://www.bohemiancoding.com/sketch -->
    <title>Fill 172</title>
    <desc>Created with Sketch.</desc>
    <defs></defs>
    <g id="Page-1" stroke="none" stroke-width="1" fill="none" fill-rule="evenodd">
        <g id="User-profile-page" transform="translate(-340.000000, -315.000000)" fill="#323232">
            <path d="M358.346925,329.089892 L357.685565,330.244604 C357.502891,330.56395 357.098875,330.672621 356.782196,330.488614 L354.945457,329.419238 C354.01342,330.479947 352.752703,331.239977 351.32198,331.533322 L351.32198,333.000714 C351.32198,333.369395 351.026635,333.667407 350.661287,333.667407 L349.338568,333.667407 C348.97322,333.667407 348.677875,333.369395 348.677875,333.000714 L348.677875,331.533322 C347.247151,331.239977 345.986435,330.479947 345.054398,329.419238 L343.217658,330.488614 C342.900979,330.672621 342.496963,330.56395 342.314289,330.244604 L341.65293,329.089892 C341.470256,328.771213 341.578927,328.363197 341.894939,328.179856 L343.739012,327.105147 C343.51967,326.442454 343.388332,325.737759 343.388332,325.000397 C343.388332,324.263034 343.51967,323.559006 343.739012,322.895646 L341.894939,321.821604 C341.578927,321.637597 341.470256,321.230247 341.65293,320.910901 L342.314289,319.756189 C342.496963,319.437509 342.900979,319.328172 343.217658,319.512179 L345.054398,320.581555 C345.986435,319.520846 347.247151,318.760816 348.677875,318.467471 L348.677875,317.000079 C348.677875,316.631398 348.97322,316.333386 349.338568,316.333386 L350.661287,316.333386 C351.026635,316.333386 351.32198,316.631398 351.32198,317.000079 L351.32198,318.467471 C352.752703,318.760816 354.01342,319.520846 354.945457,320.581555 L356.782196,319.512179 C357.098875,319.328172 357.502891,319.437509 357.685565,319.756189 L358.346925,320.910901 C358.529599,321.230247 358.420928,321.637597 358.104915,321.821604 L356.260842,322.895646 C356.480184,323.559006 356.611523,324.263034 356.611523,325.000397 C356.611523,325.737759 356.480184,326.442454 356.260842,327.105147 L358.104915,328.179856 C358.420928,328.363197 358.529599,328.771213 358.346925,329.089892 L358.346925,329.089892 Z M359.338964,327.357823 L357.790236,326.456454 C357.876906,325.983102 357.934242,325.49975 357.934242,325.000397 C357.934242,324.50171 357.876906,324.017691 357.790236,323.544339 L359.338964,322.64297 C359.971656,322.274955 360.187665,321.458923 359.822317,320.821564 L358.500264,318.512139 C358.135583,317.874781 357.326218,317.655439 356.694193,318.02412 L355.129464,318.934156 C354.398768,318.307464 353.568069,317.794777 352.644699,317.464764 L352.644699,316.333386 C352.644699,315.597357 352.052675,315 351.32198,315 L348.677875,315 C347.947179,315 347.355156,315.597357 347.355156,316.333386 L347.355156,317.464764 C346.431786,317.794777 345.601086,318.307464 344.87039,318.934156 L343.305662,318.02412 C342.673637,317.655439 341.864271,317.874781 341.49959,318.512139 L340.177538,320.821564 C339.81219,321.458923 340.028865,322.274955 340.66089,322.64297 L342.209618,323.544339 C342.122948,324.017691 342.065613,324.50171 342.065613,325.000397 C342.065613,325.49975 342.122948,325.983102 342.209618,326.456454 L340.66089,327.357823 C340.028865,327.725838 339.81219,328.54187 340.177538,329.179229 L341.49959,331.488654 C341.864271,332.126012 342.673637,332.345354 343.305662,331.976673 L344.87039,331.066637 C345.601086,331.693329 346.431786,332.206682 347.355156,332.536029 L347.355156,333.667407 C347.355156,334.403436 347.947179,335.000793 348.677875,335.000793 L351.32198,335.000793 C352.052675,335.000793 352.644699,334.403436 352.644699,333.667407 L352.644699,332.536029 C353.568069,332.206682 354.398768,331.693329 355.129464,331.066637 L356.694193,331.976673 C357.326218,332.345354 358.135583,332.126012 358.500264,331.488654 L359.822317,329.179229 C360.187665,328.54187 359.971656,327.725838 359.338964,327.357823 L359.338964,327.357823 Z M349.999927,327.000476 C348.90455,327.000476 348.016515,326.105107 348.016515,325.000397 C348.016515,323.896353 348.90455,323.000317 349.999927,323.000317 C351.095304,323.000317 351.983339,323.896353 351.983339,325.000397 C351.983339,326.105107 351.095304,327.000476 349.999927,327.000476 L349.999927,327.000476 Z M349.999927,321.666931 C348.173855,321.666931 346.694463,323.15899 346.694463,325.000397 C346.694463,326.841803 348.173855,328.333862 349.999927,328.333862 C351.826,328.333862 353.306058,326.841803 353.306058,325.000397 C353.306058,323.15899 351.826,321.666931 349.999927,321.666931 L349.999927,321.666931 Z" id="Fill-172"></path>
        </g>
    </g>
</svg>